501 0 0 0 0 CactusDrink
502 0 0 0 0 CactusPotion
503 0 0 0 0 CasinoCoins
504 0 0 0 0 DecorCandy
505 0 0 0 0 InsectSlime
506 0 0 0 0 CandyCane
507 0 0 0 0 ScorpionStinger
508 0 0 0 0 XmasCake
509 0 0 0 0 ChocolateBar
510 0 0 0 0 Candy
511 0 0 0 0 SantaHat
512 0 0 0 0 GingerBreadMan
513 0 0 0 0 Cake
514 0 0 0 0 XmasCandyCane
515 0 0 0 0 PurplePresentBox
516 0 0 0 0 BluePresentBox
517 0 0 0 0 RedScorpionStinger
518 0 0 0 0 InsectLeg
519 0 0 0 0 CherryCake
520 0 0 0 0 EasterEgg
521 0 0 0 0 Dagger
522 0 0 0 0 SharpKnife
523 0 0 0 0 LeatherShirt
524 0 0 0 0 FancyHat
525 0 0 0 0 MinersHat
526 0 0 0 0 CoinBag
527 0 0 0 0 Milk
528 0 0 0 0 Boots
529 0 0 0 0 IronArrow
530 0 0 0 0 ShortBow
531 0 0 0 0 MinerGloves
532 0 0 0 0 LeatherGloves
533 0 0 0 0 RoastedMaggot
534 0 0 0 0 OrangeCupcake
535 0 0 0 0 RedApple
536 0 0 0 0 ShortSword
537 0 0 0 0 TreasureKey
538 0 0 0 0 GreenPresentBox
539 0 0 0 0 Beer
540 0 0 0 0 EmptyBottle
541 0 0 0 0 BottleOfWater
542 0 0 0 0 BottleOfSand
543 0 0 0 0 StandardHeadband
544 0 0 0 0 SilkHeadband
545 0 0 0 0 ForestBow
546 0 0 0 0 DesertShirt
547 0 0 0 0 Bardiche
548 0 0 0 0 Halberd
549 0 0 0 0 Axe
550 0 0 0 0 BlacksmithsAxe
551 0 0 0 0 AquaHint
552 0 0 0 0 MagentaHint
553 0 0 0 0 YellowHint
554 0 0 0 0 GreenHint
555 0 0 0 0 TealHint
556 0 0 0 0 PurpleHint
557 0 0 0 0 RedHint
558 0 0 0 0 BlueHint
559 0 0 0 0 OrangeHint
560 0 0 0 0 GrayHint
561 0 0 0 0 Sabre
562 0 0 0 0 BirdLeg
563 0 0 0 0 WinterGloves
564 0 0 0 0 Turtleneck
565 0 0 0 0 PinkPetal
566 0 0 0 0 SmallMushroom
567 0 0 0 0 IronPotion
568 0 0 0 0 ConcentrationPotion
569 0 0 0 0 RawLog
570 0 0 0 0 BoneKnife
571 0 0 0 0 Setzer
572 0 0 0 0 Scimitar
573 0 0 0 0 Falchion
574 0 0 0 0 ScorpionKing
575 0 0 0 0 DesertBow
576 0 0 0 0 Beheader
577 0 0 0 0 BoneDarts
578 0 0 0 0 SandCutter
579 0 0 0 0 RockKnife
580 0 0 0 0 StaffOfLife
581 0 0 0 0 CrescentRod
582 0 0 0 0 StaffOfFire
583 0 0 0 0 StaffOfIce
584 0 0 0 0 Jackal
585 0 0 0 0 ScarabArmlet
586 0 0 0 0 CottonShorts
587 0 0 0 0 Sword
588 0 0 0 0 BastardSword
589 0 0 0 0 Toothbrush
590 0 0 0 0 DragonSword
591 0 0 0 0 LongSword
594 0 0 0 0 Spear
596 0 0 0 0 Pike
601 0 0 0 0 SteelShield
602 0 0 0 0 WoodenShield
603 0 0 0 0 LeatherShield
609 0 0 0 0 ImperialBow
610 0 0 0 0 JeansShorts
611 0 0 0 0 WhiteFur
612 0 0 0 0 CaveSnakeLamp
613 0 0 0 0 HardSpike
614 0 0 0 0 PinkAntenna
615 0 0 0 0 PumpkinHelmet
616 0 0 0 0 AxeHat
617 0 0 0 0 PirateHat
618 0 0 0 0 Goggles
619 0 0 0 0 LeatherGoggles
620 0 0 0 0 Circlet
621 0 0 0 0 Eyepatch
622 0 0 0 0 Bandana
623 0 0 0 0 Scythe
624 0 0 0 0 VNeckSweater
625 0 0 0 0 ChainmailShirt
626 0 0 0 0 LightPlatemail
627 0 0 0 0 TopHat
628 0 0 0 0 FunkyHat
629 0 0 0 0 MushHat
630 0 0 0 0 ShroomHat
631 0 0 0 0 DarkCrystal
632 0 0 0 0 CottonSkirt
633 0 0 0 0 ChristmasElfHat
634 0 0 0 0 FaceMask
635 0 0 0 0 SantaCookie
636 0 0 0 0 WarlordHelmet
637 0 0 0 0 KnightsHelmet
638 0 0 0 0 InfantryHelmet
639 0 0 0 0 CrusadeHelmet
640 0 0 0 0 IronOre
641 0 0 0 0 SnakeSkin
642 0 0 0 0 JeansChaps
643 0 0 0 0 WhiteCowboyHat
644 0 0 0 0 BlackCowboyHat
645 0 0 0 0 GoldenPlatemail
646 0 0 0 0 Crown
647 0 0 0 0 DevelopersCap
648 0 0 0 0 CottonTrousers
649 0 0 0 0 WhiteEvokersRobeBlue
650 0 0 0 0 BlackEvokersRobeBlue
651 0 0 0 0 WhiteWizardRobe
652 0 0 0 0 BlackWizardRobe
653 0 0 0 0 ApprenticeRobe
654 0 0 0 0 Cap
655 0 0 0 0 FurBoots
656 0 0 0 0 SerfHat
657 0 0 0 0 Orange
658 0 0 0 0 WarlordPlate
659 0 0 0 0 GoldenWarlordPlate
660 0 0 0 0 CottonCloth
661 0 0 0 0 RedRose
662 0 0 0 0 WhiteRose
663 0 0 0 0 DarkRedRose
664 0 0 0 0 PinkRose
665 0 0 0 0 YellowRose
666 0 0 0 0 BlackRose
667 0 0 0 0 OrangeRose
668 0 0 0 0 BlueRose
669 0 0 0 0 YellowTulip
670 0 0 0 0 PurpleTulip
671 0 0 0 0 RedTulip
672 0 0 0 0 WhiteTulip
673 0 0 0 0 PinkTulip
674 0 0 0 0 OrangeTulip
675 0 0 0 0 GraduationCap
676 0 0 0 0 Steak
677 0 0 0 0 HeartNecklace
678 0 0 0 0 NohMask
679 0 0 0 0 DemonMask
680 0 0 0 0 MauveHerb
681 0 0 0 0 CobaltHerb
682 0 0 0 0 GambogeHerb
683 0 0 0 0 AlizarinHerb
684 0 0 0 0 TinyHealingPotion
685 0 0 0 0 SmallHealingPotion
686 0 0 0 0 MediumHealingPotion
687 0 0 0 0 LargeHealingPotion
688 0 0 0 0 TankTop
689 0 0 0 0 ShortTankTop
690 0 0 0 0 RedDye
691 0 0 0 0 GreenDye
692 0 0 0 0 DarkBlueDye
693 0 0 0 0 YellowDye
694 0 0 0 0 LightBlueDye
695 0 0 0 0 PinkDye
696 0 0 0 0 BlackDye
697 0 0 0 0 OrangeDye
698 0 0 0 0 PurpleDye
699 0 0 0 0 DarkGreenDye
700 0 0 0 0 Pearl
701 0 0 0 0 PileOfAsh
702 0 0 0 0 WeddingRing
703 0 0 0 0 SulphurPowder
704 0 0 0 0 IronPowder
705 0 0 0 0 ManaPotion
706 0 0 0 0 GoldenScorpionStinger
707 0 0 0 0 MonsterOilPotion
708 0 0 0 0 LeatherPatch
709 0 0 0 0 BlackScorpionStinger
710 0 0 0 0 SnakeTongue
711 0 0 0 0 MountainSnakeTongue
712 0 0 0 0 GrassSnakeTongue
713 0 0 0 0 CaveSnakeTongue
714 0 0 0 0 SnakeEgg
715 0 0 0 0 MountainSnakeEgg
716 0 0 0 0 GrassSnakeEgg
717 0 0 0 0 CaveSnakeEgg
718 0 0 0 0 SilkCocoon
719 0 0 0 0 GreenApple
720 0 0 0 0 SilkRobe
721 0 0 0 0 HighPriestCrown
722 0 0 0 0 MonsterSkullHelmet
723 0 0 0 0 DesertHat
724 0 0 0 0 CottonHeadband
725 0 0 0 0 GMCap
726 0 0 0 0 GMRobe
727 0 0 0 0 Iten
728 0 0 0 0 MoubooFigurine
729 0 0 0 0 WarpedLog
730 0 0 0 0 Lifestone
731 0 0 0 0 AssassinPants
732 0 0 0 0 DruidTreeBranch
733 0 0 0 0 PurificationPotion
734 0 0 0 0 BlackBoots
735 0 0 0 0 CottonBoots
736 0 0 0 0 WhiteCake
737 0 0 0 0 ChocolateCake
738 0 0 0 0 OrangeCake
739 0 0 0 0 AppleCake
740 0 0 0 0 Root
741 0 0 0 0 CottonGloves
742 0 0 0 0 FourLeafClover
743 0 0 0 0 Acorn
744 0 0 0 0 DilutedConcentrationPot
745 0 0 0 0 DarkConcentrationPotion
746 0 0 0 0 MopoxCurePotion
747 0 0 0 0 LacedChocolateCake
748 0 0 0 0 LacedOrangeCupcake
749 0 0 0 0 Towel
750 0 0 0 0 SlowPoisonPotion
751 0 0 0 0 PinkieHat
752 0 0 0 0 FluffyHat
753 0 0 0 0 BatWing
754 0 0 0 0 BatTeeth
755 0 0 0 0 AssassinShirt
756 0 0 0 0 AssassinGloves
757 0 0 0 0 AssassinBoots
758 0 0 0 0 WoodenStaff
759 0 0 0 0 PaladinsHelmet
760 0 0 0 0 OverlordsHelmet
762 0 0 0 0 TerraniteArrow
763 0 0 0 0 TerraniteOre
764 0 0 0 0 SailorHat
765 0 0 0 0 CaptainsHat
766 0 0 0 0 TerraniteHelmet
767 0 0 0 0 TerraniteChestArmor
768 0 0 0 0 TerraniteLegs
769 0 0 0 0 GuyFawkesMask
770 0 0 0 0 FairyHat
771 0 0 0 0 Miniskirt
772 0 0 0 0 WispPowder
773 0 0 0 0 SpectrePowder
774 0 0 0 0 PoltergeistPowder
775 0 0 0 0 Bone
776 0 0 0 0 Skull
777 0 0 0 0 RottenRags
778 0 0 0 0 DiseasedHeart
779 0 0 0 0 UndeadEar
780 0 0 0 0 UndeadEye
781 0 0 0 0 WitchDoctorsMask
782 0 0 0 0 ForestArmor
783 0 0 0 0 PlatynaRedDress
784 0 0 0 0 ZombieNachos
785 0 0 0 0 LadyFingers
786 0 0 0 0 JellAhh
787 0 0 0 0 Snapple
788 0 0 0 0 BeetleJuice
789 0 0 0 0 GutBuster
790 0 0 0 0 BloodWine
791 0 0 0 0 YetiSkinShirt
792 0 0 0 0 BromenalBoots
793 0 0 0 0 BromenalChest
794 0 0 0 0 BromenalGloves
795 0 0 0 0 BromenalHelmet
796 0 0 0 0 BromenalLegs
798 0 0 0 0 SorcererRed
799 0 0 0 0 MylarinDust
800 0 0 0 0 BowlerHatBrown
801 0 0 0 0 PinkieHelmet
802 0 0 0 0 EasterBasket
803 0 0 0 0 GrassLiner
804 0 0 0 0 JellyBeans
805 0 0 0 0 ChocolateMouboo
806 0 0 0 0 ReedBundle
807 0 0 0 0 GrassSeed
808 0 0 0 0 HitchhikersTowel
809 0 0 0 0 WhiteHitchhikersTowel
810 0 0 0 0 RedHitchhikersTowel
811 0 0 0 0 GreenHitchhikersTowel
812 0 0 0 0 BlueHitchhikersTowel
813 0 0 0 0 YellowHitchhikersTowel
814 0 0 0 0 PurpleHitchhikersTowel
815 0 0 0 0 OrangeHitchhikersTowel
816 0 0 0 0 PinkHitchhikersTowel
817 0 0 0 0 TealHitchhikersTowel
818 0 0 0 0 LimeHitchhikersTowel
819 0 0 0 0 DiamondPowder
820 0 0 0 0 RubyPowder
821 0 0 0 0 EmeraldPowder
822 0 0 0 0 SapphirePowder
823 0 0 0 0 TopazPowder
824 0 0 0 0 AmethystPowder
825 0 0 0 0 TinyManaElixir
826 0 0 0 0 SmallManaElixir
827 0 0 0 0 MediumManaElixir
828 0 0 0 0 LargeManaElixir
829 0 0 0 0 CrozeniteFourLeafAmulet
830 0 0 0 0 BromenalFourLeafAmulet
831 0 0 0 0 SilverFourLeafAmulet
832 0 0 0 0 GoldenFourLeafAmulet
833 0 0 0 0 BrokenFourLeafAmulet
834 0 0 0 0 BrokenDoll
835 0 0 0 0 HyvernStinger
836 0 0 0 0 GrubSlime
838 0 0 0 0 CranberryLollipop
839 0 0 0 0 GrapeLollipop
840 0 0 0 0 OrangeLollipop
841 0 0 0 0 RedDottedWrap
842 0 0 0 0 YellowDottedWrap
843 0 0 0 0 BlueDottedWrap
844 0 0 0 0 PurpleStripedWrap
845 0 0 0 0 RedGoldenStripedWrap
846 0 0 0 0 GreenRedStripedWrap
847 0 0 0 0 PlushMouboo
848 0 0 0 0 Earmuffs
849 0 0 0 0 OpenPresentBox
850 0 0 0 0 ClosedChristmasBox
851 0 0 0 0 StickReinboo
852 0 0 0 0 LeatherBall
853 0 0 0 0 Doll
854 0 0 0 0 ElfNightcap
855 0 0 0 0 Sunglasses
856 0 0 0 0 KnitCap
857 0 0 0 0 LeatherTrousers
858 0 0 0 0 WolvernTooth
859 0 0 0 0 WolvernPelt
860 0 0 0 0 SquirrelPelt
861 0 0 0 0 WhiteBellTuber
862 0 0 0 0 IcedWater
863 0 0 0 0 SilverMirror
864 0 0 0 0 BookPage
865 0 0 0 0 Grimoire
866 0 0 0 0 LeatherSuitcase
867 0 0 0 0 IceGladius
868 0 0 0 0 SilkGloves
869 0 0 0 0 Antlers
870 0 0 0 0 FineDress
871 0 0 0 0 SealedSoul
872 0 0 0 0 LockPicks
873 0 0 0 0 LazuriteShard
874 0 0 0 0 LazuriteCrystal
875 0 0 0 0 HeartOfLazurite
876 0 0 0 0 WarlordBoots
877 0 0 0 0 BullHelmet
878 0 0 0 0 BansheeBow
879 0 0 0 0 HeartOfIsis
880 0 0 0 0 LazuriteRobe
881 0 0 0 0 RaggedShorts
882 0 0 0 0 RedEggshellHat
883 0 0 0 0 BlueEggshellHat
884 0 0 0 0 YellowEggshellHat
885 0 0 0 0 GreenEggshellHat
886 0 0 0 0 OrangeEggshellHat
887 0 0 0 0 DarkEggshellHat
888 0 0 0 0 MagicGMTopHat
889 0 0 0 0 MurdererCrown
890 0 0 0 0 BeanieCopter
891 0 0 0 0 SilkSheet
892 0 0 0 0 OrangeSummonFlower
893 0 0 0 0 PurpleSummonFlower
894 0 0 0 0 WhiteSummonFlower
895 0 0 0 0 YellowSummonFlower
896 0 0 0 0 RedSummonFlower
897 0 0 0 0 RedRoseHat
898 0 0 0 0 WhiteRoseHat
899 0 0 0 0 PinkRoseHat
900 0 0 0 0 YellowRoseHat
901 0 0 0 0 OrangeRoseHat
902 0 0 0 0 BlueRoseHat
903 0 0 0 0 SlingShot
904 0 0 0 0 SlingBullet
905 0 0 0 0 BucketHat
906 0 0 0 0 KidBook
907 0 0 0 0 FloydBook
908 0 0 0 0 GMAmulet
909 0 0 0 0 LeprechaunHead
910 0 0 0 0 Rainerang
1170 0 0 0 0 SweetTooth
1171 0 0 0 0 Wand
1172 0 0 0 0 SilkPants
1173 0 0 0 0 TamOShanter
1174 0 0 0 0 CashiersShade
1175 0 0 0 0 AutumnMask
1178 0 0 0 0 Contributor
1183 0 0 0 0 AmberChristmasSweater
1184 0 0 0 0 FunkyChristmasSweater
1185 0 0 0 0 PinkChristmasSweater
1186 0 0 0 0 DarkChristmasSweater
1187 0 0 0 0 BlueChristmasSweater
1188 0 0 0 0 RedStockings
1189 0 0 0 0 PollettEgg
1190 0 0 0 0 NutcrackerHat
1191 0 0 0 0 WhiteWrap
1192 0 0 0 0 YellowWrap
1193 0 0 0 0 BlueWrap
1194 0 0 0 0 PurpleWrap
1195 0 0 0 0 GreenWrap
1196 0 0 0 0 Beret
1197 0 0 0 0 SkeletonCharm
1198 0 0 0 0 Soul
1199 0 0 0 0 Arrow
1200 0 0 0 0 Bow
1201 0 0 0 0 Knife
1202 0 0 0 0 CottonShirt
1203 0 0 0 0 RangerHat
1204 0 0 0 0 AntlerHat
1205 0 0 0 0 ChristmasTreeHat
1206 0 0 0 0 SantaBeardHat
1207 0 0 0 0 RedChristmasStocking
1208 0 0 0 0 RedEasterEgg
1209 0 0 0 0 GreenEasterEgg
1210 0 0 0 0 BlueEasterEgg
1211 0 0 0 0 YellowEasterEgg
1212 0 0 0 0 PinkEasterEgg
1213 0 0 0 0 TealEasterEgg
1214 0 0 0 0 BunnyEars
1215 0 0 0 0 ToySabre
1216 0 0 0 0 MoubooHead
1217 0 0 0 0 CatEars
1218 0 0 0 0 PaperBag
1219 0 0 0 0 MoubootaurHead
1220 0 0 0 0 BunchOfParsley
1221 0 0 0 0 SkullMask
1226 0 0 0 0 SilverBell
1227 0 0 0 0 EnchantersAmulet
1229 0 0 0 0 CaramelApple
1233 0 0 0 0 FakeFangs
1234 0 0 0 0 RedOrnament
1235 0 0 0 0 YellowOrnament
1236 0 0 0 0 GreenOrnament
1237 0 0 0 0 AquaOrnament
1238 0 0 0 0 BlueOrnament
1239 0 0 0 0 MagentaOrnament
1240 0 0 0 0 SantaSnowGlobe
1241 0 0 0 0 SnowmanSnowGlobe
1242 0 0 0 0 SnowGoggles
1244 0 0 0 0 DarkTalisman
1245 0 0 0 0 BentNeedle
1246 0 0 0 0 DarkEasterEgg
1247 0 0 0 0 HeartGlasses
1248 0 0 0 0 Blueberries
1249 0 0 0 0 StrangeCoin
1250 0 0 0 0 Pear
1251 0 0 0 0 Plum
1252 0 0 0 0 Cherry
1253 0 0 0 0 GoldenDeliciousApple
1254 0 0 0 0 DarkPetal
1255 0 0 0 0 RabbitEars
1256 0 0 0 0 EggshellHat
1257 0 0 0 0 FlawedLens
1258 0 0 0 0 GlutenFreeHoney
1275 0 0 0 0 ReadingGlasses
1276 0 0 0 0 OperaMask
1277 0 0 0 0 JesterMask
1278 0 0 0 0 WitchHat
1279 0 0 0 0 GoblinMask
1280 0 0 0 0 Scissors
1281 0 0 0 0 ShockSweet
1282 0 0 0 0 BoneArrows
2050 0 0 0 0 RedCottonShirt
2051 0 0 0 0 GreenCottonShirt
2052 0 0 0 0 DarkBlueCottonShirt
2053 0 0 0 0 YellowCottonShirt
2054 0 0 0 0 LightBlueCottonShirt
2055 0 0 0 0 PinkCottonShirt
2056 0 0 0 0 BlackCottonShirt
2057 0 0 0 0 OrangeCottonShirt
2058 0 0 0 0 PurpleCottonShirt
2059 0 0 0 0 DarkGreenCottonShirt
2060 0 0 0 0 RedVNeckSweater
2061 0 0 0 0 GreenVNeckSweater
2062 0 0 0 0 DarkBlueVNeckSweater
2063 0 0 0 0 YellowVNeckSweater
2064 0 0 0 0 LightBlueVNeckSweater
2065 0 0 0 0 PinkVNeckSweater
2066 0 0 0 0 BlackVNeckSweater
2067 0 0 0 0 OrangeVNeckSweater
2068 0 0 0 0 PurpleVNeckSweater
2069 0 0 0 0 DarkGreenVNeckSweater
2070 0 0 0 0 RedTurtleneck
2071 0 0 0 0 GreenTurtleneck
2072 0 0 0 0 DarkBlueTurtleneck
2073 0 0 0 0 YellowTurtleneck
2074 0 0 0 0 LightBlueTurtleneck
2075 0 0 0 0 PinkTurtleneck
2076 0 0 0 0 BlackTurtleneck
2077 0 0 0 0 OrangeTurtleneck
2078 0 0 0 0 PurpleTurtleneck
2079 0 0 0 0 DarkGreenTurtleneck
2080 0 0 0 0 RedSilkRobe
2081 0 0 0 0 GreenSilkRobe
2082 0 0 0 0 DarkBlueSilkRobe
2083 0 0 0 0 YellowSilkRobe
2084 0 0 0 0 LightBlueSilkRobe
2085 0 0 0 0 PinkSilkRobe
2086 0 0 0 0 BlackSilkRobe
2087 0 0 0 0 OrangeSilkRobe
2088 0 0 0 0 PurpleSilkRobe
2089 0 0 0 0 DarkGreenSilkRobe
2090 0 0 0 0 RedTankTop
2091 0 0 0 0 GreenTankTop
2092 0 0 0 0 DarkBlueTankTop
2093 0 0 0 0 YellowTankTop
2094 0 0 0 0 LightBlueTankTop
2095 0 0 0 0 PinkTankTop
2096 0 0 0 0 BlackTankTop
2097 0 0 0 0 OrangeTankTop
2098 0 0 0 0 PurpleTankTop
2099 0 0 0 0 DarkGreenTankTop
2100 0 0 0 0 RedCottonSkirt
2101 0 0 0 0 GreenCottonSkirt
2102 0 0 0 0 DarkBlueCottonSkirt
2103 0 0 0 0 YellowCottonSkirt
2104 0 0 0 0 LightBlueCottonSkirt
2105 0 0 0 0 PinkCottonSkirt
2106 0 0 0 0 BlackCottonSkirt
2107 0 0 0 0 OrangeCottonSkirt
2108 0 0 0 0 PurpleCottonSkirt
2109 0 0 0 0 DarkGreenCottonSkirt
2110 0 0 0 0 RedCottonShorts
2111 0 0 0 0 GreenCottonShorts
2112 0 0 0 0 DarkBlueCottonShorts
2113 0 0 0 0 YellowCottonShorts
2114 0 0 0 0 LightBlueCottonShorts
2115 0 0 0 0 PinkCottonShorts
2116 0 0 0 0 BlackCottonShorts
2117 0 0 0 0 OrangeCottonShorts
2118 0 0 0 0 PurpleCottonShorts
2119 0 0 0 0 DarkGreenCottonShorts
2120 0 0 0 0 RedShortTankTop
2121 0 0 0 0 GreenShortTankTop
2122 0 0 0 0 DarkBlueShortTankTop
2123 0 0 0 0 YellowShortTankTop
2124 0 0 0 0 LightBlueShortTankTop
2125 0 0 0 0 PinkShortTankTop
2126 0 0 0 0 BlackShortTankTop
2127 0 0 0 0 OrangeShortTankTop
2128 0 0 0 0 PurpleShortTankTop
2129 0 0 0 0 DarkGreenShortTankTop
2130 0 0 0 0 RedDesertHat
2131 0 0 0 0 GreenDesertHat
2132 0 0 0 0 DarkBlueDesertHat
2133 0 0 0 0 YellowDesertHat
2134 0 0 0 0 LightBlueDesertHat
2135 0 0 0 0 PinkDesertHat
2136 0 0 0 0 BlackDesertHat
2137 0 0 0 0 OrangeDesertHat
2138 0 0 0 0 PurpleDesertHat
2139 0 0 0 0 DarkGreenDesertHat
2140 0 0 0 0 RedCottonHeadband
2141 0 0 0 0 GreenCottonHeadband
2142 0 0 0 0 DarkBlueCottonHeadband
2143 0 0 0 0 YellowCottonHeadband
2144 0 0 0 0 LightBlueCottonHeadband
2145 0 0 0 0 PinkCottonHeadband
2146 0 0 0 0 BlackCottonHeadband
2147 0 0 0 0 OrangeCottonHeadband
2148 0 0 0 0 PurpleCottonHeadband
2149 0 0 0 0 DarkGreenCottonHeadband
2150 0 0 0 0 RedCottonBoots
2151 0 0 0 0 GreenCottonBoots
2152 0 0 0 0 DarkBlueCottonBoots
2153 0 0 0 0 YellowCottonBoots
2154 0 0 0 0 LightBlueCottonBoots
2155 0 0 0 0 PinkCottonBoots
2156 0 0 0 0 BlackCottonBoots
2157 0 0 0 0 OrangeCottonBoots
2158 0 0 0 0 PurpleCottonBoots
2159 0 0 0 0 DarkGreenCottonBoots
2160 0 0 0 0 RedCottonGloves
2161 0 0 0 0 GreenCottonGloves
2162 0 0 0 0 DarkBlueCottonGloves
2163 0 0 0 0 YellowCottonGloves
2164 0 0 0 0 LightBlueCottonGloves
2165 0 0 0 0 PinkCottonGloves
2166 0 0 0 0 BlackCottonGloves
2167 0 0 0 0 OrangeCottonGloves
2168 0 0 0 0 PurpleCottonGloves
2169 0 0 0 0 DarkGreenCottonGloves
2170 0 0 0 0 RedMiniskirt
2171 0 0 0 0 GreenMiniskirt
2172 0 0 0 0 DarkBlueMiniskirt
2173 0 0 0 0 YellowMiniskirt
2174 0 0 0 0 LightBlueMiniskirt
2175 0 0 0 0 PinkMiniskirt
2176 0 0 0 0 BlackMiniskirt
2177 0 0 0 0 OrangeMiniskirt
2178 0 0 0 0 PurpleMiniskirt
2179 0 0 0 0 DarkGreenMiniskirt
2180 0 0 0 0 RedCottonTrousers
2181 0 0 0 0 GreenCottonTrousers
2182 0 0 0 0 DarkBlueCottonTrousers
2183 0 0 0 0 YellowCottonTrousers
2184 0 0 0 0 LightBlueCottonTrousers
2185 0 0 0 0 PinkCottonTrousers
2186 0 0 0 0 BlackCottonTrousers
2187 0 0 0 0 OrangeCottonTrousers
2188 0 0 0 0 PurpleCottonTrousers
2189 0 0 0 0 DarkGreenCottonTrousers
2190 0 0 0 0 RedRabbitEars
2191 0 0 0 0 GreenRabbitEars
2192 0 0 0 0 DarkBlueRabbitEars
2193 0 0 0 0 YellowRabbitEars
2194 0 0 0 0 LightBlueRabbitEars
2195 0 0 0 0 PinkRabbitEars
2196 0 0 0 0 BlackRabbitEars
2197 0 0 0 0 OrangeRabbitEars
2198 0 0 0 0 PurpleRabbitEars
2199 0 0 0 0 DarkGreenRabbitEars
2200 0 0 0 0 RedWizardHat
2201 0 0 0 0 GreenWizardHat
2202 0 0 0 0 DarkBlueWizardHat
2203 0 0 0 0 YellowWizardHat
2204 0 0 0 0 LightBlueWizardHat
2205 0 0 0 0 PinkWizardHat
2206 0 0 0 0 BlackWizardHat
2207 0 0 0 0 OrangeWizardHat
2208 0 0 0 0 PurpleWizardHat
2209 0 0 0 0 DarkGreenWizardHat
2210 0 0 0 0 RedBowlerHat
2211 0 0 0 0 GreenBowlerHat
2212 0 0 0 0 DarkBlueBowlerHat
2213 0 0 0 0 YellowBowlerHat
2214 0 0 0 0 LightBlueBowlerHat
2215 0 0 0 0 PinkBowlerHat
2216 0 0 0 0 BlackBowlerHat
2217 0 0 0 0 OrangeBowlerHat
2218 0 0 0 0 PurpleBowlerHat
2219 0 0 0 0 DarkGreenBowlerHat
2220 0 0 0 0 RedSorcererRed
2221 0 0 0 0 GreenSorcererRed
2222 0 0 0 0 DarkBlueSorcererRed
2223 0 0 0 0 YellowSorcererRed
2224 0 0 0 0 LightBlueSorcererRed
2225 0 0 0 0 PinkSorcererRed
2226 0 0 0 0 BlackSorcererRed
2227 0 0 0 0 OrangeSorcererRed
2228 0 0 0 0 PurpleSorcererRed
2229 0 0 0 0 DarkGreenSorcererRed
2230 0 0 0 0 RedBowlerHatBrown
2231 0 0 0 0 GreenBowlerHatBrown
2232 0 0 0 0 DarkBlueBowlerHatBrown
2233 0 0 0 0 YellowBowlerHatBrown
2234 0 0 0 0 LightBlueBowlerHatBrown
2235 0 0 0 0 PinkBowlerHatBrown
2236 0 0 0 0 BlackBowlerHatBrown
2237 0 0 0 0 OrangeBowlerHatBrown
2238 0 0 0 0 PurpleBowlerHatBrown
2239 0 0 0 0 DarkGreenBowlerHatBrown
2240 0 0 0 0 RedFineDress
2241 0 0 0 0 GreenFineDress
2242 0 0 0 0 DarkBlueFineDress
2243 0 0 0 0 YellowFineDress
2244 0 0 0 0 LightBlueFineDress
2245 0 0 0 0 PinkFineDress
2246 0 0 0 0 BlackFineDress
2247 0 0 0 0 OrangeFineDress
2248 0 0 0 0 PurpleFineDress
2249 0 0 0 0 DarkGreenFineDress
2250 0 0 0 0 RedCottonCloth
2251 0 0 0 0 GreenCottonCloth
2252 0 0 0 0 DarkBlueCottonCloth
2253 0 0 0 0 YellowCottonCloth
2254 0 0 0 0 LightBlueCottonCloth
2255 0 0 0 0 PinkCottonCloth
2256 0 0 0 0 BlackCottonCloth
2257 0 0 0 0 OrangeCottonCloth
2258 0 0 0 0 PurpleCottonCloth
2259 0 0 0 0 DarkGreenCottonCloth
2260 0 0 0 0 RedBeret
2261 0 0 0 0 GreenBeret
2262 0 0 0 0 DarkBlueBeret
2263 0 0 0 0 YellowBeret
2264 0 0 0 0 LightBlueBeret
2265 0 0 0 0 PinkBeret
2266 0 0 0 0 BlackBeret
2267 0 0 0 0 OrangeBeret
2268 0 0 0 0 PurpleBeret
2269 0 0 0 0 DarkGreenBeret
2270 0 0 0 0 BlinkingEvil
2271 0 0 0 0 BlinkingEvilRed
2272 0 0 0 0 BlinkingEvilBlue
2273 0 0 0 0 BlinkingEvilPink
2274 0 0 0 0 BlinkingEvilYellow
3000 0 0 0 0 JackOLantern
3001 0 0 0 0 RubberBat
3002 0 0 0 0 RealisticBrain
3003 0 0 0 0 JarofBlood
3004 0 0 0 0 Tongue
3006 0 0 0 0 TonoriDelight
3007 0 0 0 0 Marshmallow
3009 0 0 0 0 JellySkull
3010 0 0 0 0 CandyPumpkin
3011 0 0 0 0 PumpkinSeeds
4000 0 0 0 0 AngryScorpionStinger
4001 0 0 0 0 Coal
4002 0 0 0 0 Diamond
4003 0 0 0 0 Ruby
4004 0 0 0 0 Emerald
4005 0 0 0 0 Sapphire
4006 0 0 0 0 Topaz
4007 0 0 0 0 Amethyst
4008 0 0 0 0 DiamondRing
4009 0 0 0 0 RubyRing
4010 0 0 0 0 EmeraldRing
4011 0 0 0 0 SapphireRing
4012 0 0 0 0 TopazRing
4013 0 0 0 0 AmethystRing
4014 0 0 0 0 SimpleRing
4015 0 0 0 0 IronIngot
4016 0 0 0 0 BanditHood
4017 0 0 0 0 RedPowder
4018 0 0 0 0 YellowPowder
4019 0 0 0 0 BluePowder
4020 0 0 0 0 CandleHelmet
4021 0 0 0 0 YellowPresentBox
4022 0 0 0 0 WhitePresentBox
4023 0 0 0 0 AnimalBones
4024 0 0 0 0 FrozenYetiTear
4025 0 0 0 0 YetiClaw
4026 0 0 0 0 IceCube
4027 0 0 0 0 YetiMask
4028 0 0 0 0 WizardHat
4029 0 0 0 0 GrimaceOfDementia
4030 0 0 0 0 BowlerHat
4031 0 0 0 0 Monocle
4032 0 0 0 0 PanHat
4033 0 0 0 0 ChefHat
4034 0 0 0 0 BlackPearl
4035 0 0 0 0 PickledBeets
4036 0 0 0 0 RoastedAcorn
4037 0 0 0 0 WhiteBlanket
4038 0 0 0 0 WhiteSaddleRug
4039 0 0 0 0 RedSaddleRug
4040 0 0 0 0 RawTalisman
4041 0 0 0 0 FlightTalisman
4042 0 0 0 0 RedNose
5000 0 0 0 0 RedSorcererGreen
5001 0 0 0 0 GreenSorcererGreen
5002 0 0 0 0 DarkBlueSorcererGreen
5003 0 0 0 0 YellowSorcererGreen
5004 0 0 0 0 LightBlueSorcererGreen
5005 0 0 0 0 PinkSorcererGreen
5006 0 0 0 0 BlackSorcererGreen
5007 0 0 0 0 OrangeSorcererGreen
5008 0 0 0 0 PurpleSorcererGreen
5009 0 0 0 0 DarkGreenSorcererGreen
5010 0 0 0 0 SorcererGreen
5011 0 0 0 0 RedSorcererDBlue
5012 0 0 0 0 GreenSorcererDBlue
5013 0 0 0 0 DarkBlueSorcererDBlue
5014 0 0 0 0 YellowSorcererDBlue
5015 0 0 0 0 LightBlueSorcererDBlue
5016 0 0 0 0 PinkSorcererDBlue
5017 0 0 0 0 BlackSorcererDBlue
5018 0 0 0 0 OrangeSorcererDBlue
5019 0 0 0 0 PurpleSorcererDBlue
5020 0 0 0 0 DarkGreenSorcererDBlue
5021 0 0 0 0 SorcererDBlue
5022 0 0 0 0 RedSorcererYellow
5023 0 0 0 0 GreenSorcererYellow
5024 0 0 0 0 DarkBlueSorcererYellow
5025 0 0 0 0 YellowSorcererYellow
5026 0 0 0 0 LightBlueSorcererYellow
5027 0 0 0 0 PinkSorcererYellow
5028 0 0 0 0 BlackSorcererYellow
5029 0 0 0 0 OrangeSorcererYellow
5030 0 0 0 0 PurpleSorcererYellow
5031 0 0 0 0 DarkGreenSorcererYellow
5032 0 0 0 0 SorcererYellow
5033 0 0 0 0 RedSorcererLBlue
5034 0 0 0 0 GreenSorcererLBlue
5035 0 0 0 0 DarkBlueSorcererLBlue
5036 0 0 0 0 YellowSorcererLBlue
5037 0 0 0 0 LightBlueSorcererLBlue
5038 0 0 0 0 PinkSorcererLBlue
5039 0 0 0 0 BlackSorcererLBlue
5040 0 0 0 0 OrangeSorcererLBlue
5041 0 0 0 0 PurpleSorcererLBlue
5042 0 0 0 0 DarkGreenSorcererLBlue
5043 0 0 0 0 SorcererLBlue
5044 0 0 0 0 RedSorcererPink
5045 0 0 0 0 GreenSorcererPink
5046 0 0 0 0 DarkBlueSorcererPink
5047 0 0 0 0 YellowSorcererPink
5048 0 0 0 0 LightBlueSorcererPink
5049 0 0 0 0 PinkSorcererPink
5050 0 0 0 0 BlackSorcererPink
5051 0 0 0 0 OrangeSorcererPink
5052 0 0 0 0 PurpleSorcererPink
5053 0 0 0 0 DarkGreenSorcererPink
5054 0 0 0 0 SorcererPink
5055 0 0 0 0 RedSorcererBlack
5056 0 0 0 0 GreenSorcererBlack
5057 0 0 0 0 DarkBlueSorcererBlack
5058 0 0 0 0 YellowSorcererBlack
5059 0 0 0 0 LightBlueSorcererBlack
5060 0 0 0 0 PinkSorcererBlack
5061 0 0 0 0 BlackSorcererBlack
5062 0 0 0 0 OrangeSorcererBlack
5063 0 0 0 0 PurpleSorcererBlack
5064 0 0 0 0 DarkGreenSorcererBlack
5065 0 0 0 0 SorcererBlack
5066 0 0 0 0 RedSorcererOrange
5067 0 0 0 0 GreenSorcererOrange
5068 0 0 0 0 DarkBlueSorcererOrange
5069 0 0 0 0 YellowSorcererOrange
5070 0 0 0 0 LightBlueSorcererOrange
5071 0 0 0 0 PinkSorcererOrange
5072 0 0 0 0 BlackSorcererOrange
5073 0 0 0 0 OrangeSorcererOrange
5074 0 0 0 0 PurpleSorcererOrange
5075 0 0 0 0 DarkGreenSorcererOrange
5076 0 0 0 0 SorcererOrange
5077 0 0 0 0 RedSorcererPurple
5078 0 0 0 0 GreenSorcererPurple
5079 0 0 0 0 DarkBlueSorcererPurple
5080 0 0 0 0 YellowSorcererPurple
5081 0 0 0 0 LightBlueSorcererPurple
5082 0 0 0 0 PinkSorcererPurple
5083 0 0 0 0 BlackSorcererPurple
5084 0 0 0 0 OrangeSorcererPurple
5085 0 0 0 0 PurpleSorcererPurple
5086 0 0 0 0 DarkGreenSorcererPurple
5087 0 0 0 0 SorcererPurple
5088 0 0 0 0 RedSorcererDGreen
5089 0 0 0 0 GreenSorcererDGreen
5090 0 0 0 0 DarkBlueSorcererDGreen
5091 0 0 0 0 YellowSorcererDGreen
5092 0 0 0 0 LightBlueSorcererDGreen
5093 0 0 0 0 PinkSorcererDGreen
5094 0 0 0 0 BlackSorcererDGreen
5095 0 0 0 0 OrangeSorcererDGreen
5096 0 0 0 0 PurpleSorcererDGreen
5097 0 0 0 0 DarkGreenSorcererDGreen
5098 0 0 0 0 SorcererDGreen
5099 0 0 0 0 RedSorcererWhite
5100 0 0 0 0 GreenSorcererWhite
5101 0 0 0 0 DarkBlueSorcererWhite
5102 0 0 0 0 YellowSorcererWhite
5103 0 0 0 0 LightBlueSorcererWhite
5104 0 0 0 0 PinkSorcererWhite
5105 0 0 0 0 BlackSorcererWhite
5106 0 0 0 0 OrangeSorcererWhite
5107 0 0 0 0 PurpleSorcererWhite
5108 0 0 0 0 DarkGreenSorcererWhite
5109 0 0 0 0 SorcererWhite
5110 0 0 0 0 Bloodstone
5111 0 0 0 0 BrainStem
5115 0 0 0 0 VampireBatWing
5124 0 0 0 0 BloodInk
5125 0 0 0 0 UnderworldKey
5126 0 0 0 0 MTJarofOwnBlood
5127 0 0 0 0 JarofOwnBlood
5128 0 0 0 0 DarkHelm
5129 0 0 0 0 UnderworldMask
5130 0 0 0 0 Phylactery
5131 0 0 0 0 RedContributor
5132 0 0 0 0 GreenContributor
5133 0 0 0 0 DarkBlueContributor
5134 0 0 0 0 YellowContributor
5135 0 0 0 0 LightBlueContributor
5136 0 0 0 0 PinkContributor
5137 0 0 0 0 BlackContributor
5138 0 0 0 0 OrangeContributor
5139 0 0 0 0 PurpleContributor
5140 0 0 0 0 DarkGreenContributor
5141 0 0 0 0 AlizarinScroll
5142 0 0 0 0 CobaltScroll
5143 0 0 0 0 GambogeScroll
5144 0 0 0 0 MauveScroll
5145 0 0 0 0 JoyplimScroll
5200 0 0 0 0 PointyWitchHat
5201 0 0 0 0 Pipe
5202 0 0 0 0 PilotHat
5203 0 0 0 0 MoonshroomHat
5204 0 0 0 0 CarbonGasMask
5205 0 0 0 0 EskimoHat
5209 0 0 0 0 TerraniteHead
5210 0 0 0 0 GrassFedTofu
5211 0 0 0 0 ActivatedSulphur
5212 0 0 0 0 FairTradeSoil
5213 0 0 0 0 VeganWater
5214 0 0 0 0 LactoseFreeAcorn
5215 0 0 0 0 FreeRangeMoss
5216 0 0 0 0 JadeEgg
5217 0 0 0 0 RawAir
5218 0 0 0 0 RedTicket
5219 0 0 0 0 YellowTicket
5220 0 0 0 0 GoldTicket
5221 0 0 0 0 GreenTicket
5222 0 0 0 0 AquaTicket
5223 0 0 0 0 BlueTicket
5224 0 0 0 0 PurpleTicket
5225 0 0 0 0 PinkTicket
5226 0 0 0 0 GroovyHat
5227 0 0 0 0 JazzyHat
5228 0 0 0 0 ChicSantaHat
5230 0 0 0 0 AnniversaryHat
5231 0 0 0 0 RedPresentHat
5232 0 0 0 0 GreenPresentHat
5233 0 0 0 0 BluePresentHat
5234 0 0 0 0 YellowPresentHat
5235 0 0 0 0 TMWBirthdayGift
5236 0 0 0 0 GumiCandy
5237 0 0 0 0 CaramelCandy
5238 0 0 0 0 AFKCap
5239 0 0 0 0 Aureole
5240 0 0 0 0 SmileyCap
5241 0 0 0 0 RedShades
5242 0 0 0 0 GreenShades
5243 0 0 0 0 DarkBlueShades
5244 0 0 0 0 YellowShades
5245 0 0 0 0 LightBlueShades
5246 0 0 0 0 PinkShades
5247 0 0 0 0 BlackShades
5248 0 0 0 0 OrangeShades
5249 0 0 0 0 PurpleShades
5250 0 0 0 0 DarkGreenShades
5251 0 0 0 0 Tomato
5252 0 0 0 0 GuardianWings
5253 0 0 0 0 MageRing
5254 0 0 0 0 SaviorArmor
5255 0 0 0 0 PVPCap
5256 0 0 0 0 PVPCoin
5257 0 0 0 0 GoldenPVPCap
5258 0 0 0 0 BlinkingHocus
5259 0 0 0 0 BlinkingEvilHalloween
5260 0 0 0 0 Snowball
5261 0 0 0 0 SnowLauncher
5262 0 0 0 0 MovieCap
5263 0 0 0 0 LovePotion
5264 0 0 0 0 BlueWolfHelmet
5265 0 0 0 0 LoveLetter
5266 0 0 0 0 CloverHat
5267 0 0 0 0 AssassinMask
5270 0 0 0 0 ManaPearl
5279 0 0 0 0 LegendaryCarrot
5280 0 0 0 0 LeprechaunHat
5281 0 0 0 0 PartyHatR
5282 0 0 0 0 PartyHatG
5283 0 0 0 0 PartyHatB
5284 0 0 0 0 Flintlock
5285 0 0 0 0 DragonShield
5286 0 0 0 0 RedArmor
5287 0 0 0 0 HMCPirateHat
5288 0 0 0 0 Naftalin
5289 0 0 0 0 ArmorBreaker
5290 0 0 0 0 SilverArrow
5291 0 0 0 0 ThornArrow
5292 0 0 0 0 SilverOre
5294 0 0 0 0 CrazyRum
5295 0 0 0 0 PinkFlowerSeed
5297 0 0 0 0 GoldenTooth
5299 0 0 0 0 RedSaviorArmor
5300 0 0 0 0 GreenSaviorArmor
5301 0 0 0 0 DarkBlueSaviorArmor
5302 0 0 0 0 YellowSaviorArmor
5303 0 0 0 0 LightBlueSaviorArmor
5304 0 0 0 0 PinkSaviorArmor
5305 0 0 0 0 BlackSaviorArmor
5306 0 0 0 0 OrangeSaviorArmor
5307 0 0 0 0 PurpleSaviorArmor
5308 0 0 0 0 DarkGreenSaviorArmor
5309 0 0 0 0 ManaDust
5310 0 0 0 0 EnlighteningElixir
5311 0 0 0 0 ShadowHerb
5312 0 0 0 0 Honey
5314 0 0 0 0 GoldOre
5316 0 0 0 0 BromenalOre
5318 0 0 0 0 BromenalDroplet
5320 0 0 0 0 BlackChainmailShirt
5321 0 0 0 0 BlackLightPlatemail
5322 0 0 0 0 BlackWarlordPlate
5323 0 0 0 0 BlackWarlordBoots
5324 0 0 0 0 BlackWarlordHelmet
5325 0 0 0 0 BlackInfantryHelmet
5326 0 0 0 0 BlackCrusadeHelmet
5327 0 0 0 0 CopperOre
5329 0 0 0 0 IronShovel
5330 0 0 0 0 ShadowScroll
5331 0 0 0 0 YellowApple
5332 0 0 0 0 Charcoal
5333 0 0 0 0 Bread
5334 0 0 0 0 Fungus
5335 0 0 0 0 Cheese
5336 0 0 0 0 LettuceLeaf
5337 0 0 0 0 Piberries
5338 0 0 0 0 Croconut
5339 0 0 0 0 HalfCroconut
5340 0 0 0 0 DeliciousCookie
5341 0 0 0 0 Manana
5342 0 0 0 0 Carrot
5343 0 0 0 0 PumpkinJuice
5344 0 0 0 0 ChocolateBiscuit
5345 0 0 0 0 ChocolateBunny
5346 0 0 0 0 Potatoz
5347 0 0 0 0 RipePumpkin
5348 0 0 0 0 FruitSalad
5349 0 0 0 0 DuckEgg
5350 0 0 0 0 Dragonfruit
5351 0 0 0 0 PirateTreasureMap
5352 0 0 0 0 DungeonMap
5353 0 0 0 0 TreasureMap
5354 0 0 0 0 RubberDucky
5355 0 0 0 0 TortugaShellFragment
5356 0 0 0 0 TortugaShell
5357 0 0 0 0 RattoTail
5358 0 0 0 0 RattoTeeth
5359 0 0 0 0 SilverKey
5360 0 0 0 0 MushroomSpores
5361 0 0 0 0 Snowflake
5362 0 0 0 0 BeeStinger
5363 0 0 0 0 Flour
5364 0 0 0 0 ButterButterfly
5365 0 0 0 0 DuckFeather
5366 0 0 0 0 CrocClaw
5367 0 0 0 0 ScorpionClaw
5368 0 0 0 0 RedScorpionClaw
5369 0 0 0 0 BlackScorpionClaw
5370 0 0 0 0 GoldenScorpionClaw
5371 0 0 0 0 DragonScales
5372 0 0 0 0 DragonHorn
5373 0 0 0 0 JunglefowlEgg
5374 0 0 0 0 KingChonkyBirbEgg
5375 0 0 0 0 JunglefowlFeather
5376 0 0 0 0 KingChonkyBirbFeather
5377 0 0 0 0 Honeycomb
5378 0 0 0 0 Beeswax
5379 0 0 0 0 Sauerkraut
